<?xml version="1.0" standalone="no"?>
<!DOCTYPE svg PUBLIC "-//W3C//DTD SVG 20010904//EN"
 "http://www.w3.org/TR/2001/REC-SVG-20010904/DTD/svg10.dtd">
<svg version="1.0" xmlns="http://www.w3.org/2000/svg"
 width="260.000000pt" height="260.000000pt" viewBox="0 0 260.000000 260.000000"
 preserveAspectRatio="xMidYMid meet">
<metadata>
Created by potrace 1.11, written by Peter Selinger 2001-2013
</metadata>
<g transform="translate(0.000000,260.000000) scale(0.100000,-0.100000)"
fill="#000000" stroke="none">
<path d="M950 2332 c-34 -19 -77 -87 -121 -197 -24 -57 -148 -353 -169 -400
-10 -22 -75 -175 -145 -340 -70 -165 -154 -362 -186 -438 l-59 -139 91 -109
c83 -100 92 -108 105 -92 7 10 14 23 14 28 0 8 124 297 184 430 8 17 49 111
91 210 43 99 90 207 104 240 15 33 38 86 51 118 13 31 26 57 30 57 3 0 160
-153 350 -340 189 -187 346 -340 350 -340 3 0 25 44 50 98 24 53 65 143 92
199 26 57 59 130 73 163 l25 60 -129 132 c-70 73 -150 156 -177 184 -311 327
-444 459 -479 475 -51 24 -101 24 -145 1z"/>
<path d="M2118 1944 c-14 -33 -79 -180 -143 -329 -119 -275 -134 -309 -165
-380 -45 -99 -69 -156 -105 -242 -22 -51 -42 -93 -45 -93 -3 0 -161 153 -350
340 -189 187 -347 340 -350 340 -6 0 -15 -18 -155 -324 l-86 -189 23 -25 c13
-14 71 -75 130 -136 58 -61 130 -136 158 -166 273 -289 440 -455 475 -471 72
-33 150 -18 192 38 11 17 44 83 71 149 27 65 165 391 305 723 l256 603 -58 72
c-33 39 -74 88 -93 110 l-34 38 -26 -58z"/>
</g>
</svg>
